{
  "MarathonMasterURLs": [
    "https://host1:1234",
    "https://host2:1234"
  ],
  "grammarVersion" : "Alba",
  "Tasks": {
    "Marathon": {
      "_LHCbDIRAC": {
        "template": "tpls/example_tpl.json",
        "mem": 1,
        "DataManagement": {
          "mem": 2,
          "FileCatalog": {
            "cpu": 2
          },
          "Bookkeeping": {
            "cpu": 1,
            "mem" : 3
          }
        }
      }
    }
  }
}
