{
    "MarathonMasterURLs": [
        "https://host1:1234",
        "https://host2:1234"
    ],
    "grammarVersion": "Alba",
    "Tasks": {
        "Marathon": {
            "MyApp": {
                "template": "nonexistingTemplate.json",
                "mem": 1
            }
        }
    }
}
